{
  "total": 3735,
  "offset": 0,
  "next": 3,
  "data": [
    {
      "paperId": "7fd488db5a9882cba16cb7e810fe1bbdf5494d7c",
      "corpusId": 301234001,
      "title": "Dopamine reward prediction-error signalling: a two-component response",
      "venue": "Nature Reviews Neuroscience",
      "year": 2016,
      "citationCount": 808,
      "authors": [{"authorId": "145401965", "name": "W. Schultz"}]
    },
    {
      "paperId": "408e947bde841889d0ccf3062bf0769aa635839b",
      "corpusId": 301234002,
      "title": "Dopamine reward prediction error coding",
      "venue": "Dialogues in Clinical Neuroscience",
      "year": 2016,
      "citationCount": 464,
      "authors": [{"authorId": "145401965", "name": "W. Schultz"}]
    },
    {
      "paperId": "6caac247905c9ed2bb7fcc6697a5c00205b98cc8",
      "corpusId": 301234003,
      "title": "Understanding dopamine and reinforcement learning: The dopamine reward prediction error hypothesis",
      "venue": "Proceedings of the National Academy of Sciences of the United States of America",
      "year": 2011,
      "citationCount": 933,
      "authors": [{"authorId": "47328071", "name": "P. Glimcher"}]
    }
  ]
}
